module Gogood

go 1.19

require (
	github.com/gin-gonic/gin v1.8.1
	gitlab.com/golibs-starter/golib-data v0.9.2
	gitlab.com/golibs-starter/golib-test v0.4.1
	gorm.io/driver/mysql v1.4.4
	gorm.io/gorm v1.24.2
)

require (
	github.com/cespare/xxhash/v2 v2.1.2 // indirect
	github.com/davecgh/go-spew v1.1.1 // indirect
	github.com/dgryski/go-rendezvous v0.0.0-20200823014737-9f7001d12a5f // indirect
	github.com/emirpasic/gods v1.18.1 // indirect
	github.com/fsnotify/fsnotify v1.4.9 // indirect
	github.com/gin-contrib/sse v0.1.0 // indirect
	github.com/go-playground/locales v0.14.0 // indirect
	github.com/go-playground/universal-translator v0.18.0 // indirect
	github.com/go-playground/validator/v10 v10.10.0 // indirect
	github.com/go-redis/redis/v8 v8.11.5 // indirect
	github.com/go-sql-driver/mysql v1.6.0 // indirect
	github.com/goccy/go-json v0.9.7 // indirect
	github.com/google/uuid v1.3.0 // indirect
	github.com/hashicorp/hcl v1.0.0 // indirect
	github.com/jackc/chunkreader/v2 v2.0.1 // indirect
	github.com/jackc/pgconn v1.13.0 // indirect
	github.com/jackc/pgio v1.0.0 // indirect
	github.com/jackc/pgpassfile v1.0.0 // indirect
	github.com/jackc/pgproto3/v2 v2.3.1 // indirect
	github.com/jackc/pgservicefile v0.0.0-20200714003250-2b9c44734f2b // indirect
	github.com/jackc/pgtype v1.12.0 // indirect
	github.com/jackc/pgx/v4 v4.17.2 // indirect
	github.com/jinzhu/inflection v1.0.0 // indirect
	github.com/jinzhu/now v1.1.5 // indirect
	github.com/json-iterator/go v1.1.12 // indirect
	github.com/leodido/go-urn v1.2.1 // indirect
	github.com/magiconair/properties v1.8.5 // indirect
	github.com/mattn/go-isatty v0.0.14 // indirect
	github.com/mitchellh/mapstructure v1.4.1 // indirect
	github.com/modern-go/concurrent v0.0.0-20180228061459-e0a39a4cb421 // indirect
	github.com/modern-go/reflect2 v1.0.2 // indirect
	github.com/pelletier/go-toml v1.9.3 // indirect
	github.com/pelletier/go-toml/v2 v2.0.1 // indirect
	github.com/pkg/errors v0.9.1 // indirect
	github.com/pmezard/go-difflib v1.0.0 // indirect
	github.com/spf13/afero v1.6.0 // indirect
	github.com/spf13/cast v1.3.1 // indirect
	github.com/spf13/jwalterweatherman v1.1.0 // indirect
	github.com/spf13/pflag v1.0.5 // indirect
	github.com/spf13/viper v1.8.1 // indirect
	github.com/stretchr/testify v1.8.0 // indirect
	github.com/subosito/gotenv v1.2.0 // indirect
	github.com/tidwall/gjson v1.8.1 // indirect
	github.com/tidwall/match v1.0.3 // indirect
	github.com/tidwall/pretty v1.1.0 // indirect
	github.com/ugorji/go/codec v1.2.7 // indirect
	github.com/zenthangplus/defaults v1.6.2-beta // indirect
	gitlab.com/golibs-starter/golib v0.12.2 // indirect
	go.uber.org/atomic v1.7.0 // indirect
	go.uber.org/dig v1.15.0 // indirect
	go.uber.org/fx v1.18.2 // indirect
	go.uber.org/multierr v1.6.0 // indirect
	go.uber.org/zap v1.21.0 // indirect
	golang.org/x/crypto v0.0.0-20220722155217-630584e8d5aa // indirect
	golang.org/x/net v0.0.0-20211112202133-69e39bad7dc2 // indirect
	golang.org/x/sys v0.0.0-20211216021012-1d35b9e2eb4e // indirect
	golang.org/x/text v0.3.7 // indirect
	google.golang.org/protobuf v1.28.0 // indirect
	gopkg.in/ini.v1 v1.62.0 // indirect
	gopkg.in/yaml.v2 v2.4.0 // indirect
	gopkg.in/yaml.v3 v3.0.1 // indirect
	gorm.io/driver/postgres v1.3.10 // indirect
)
